…
## The following objects are masked from 'package:stats':
## 
##     filter, lag

## The following objects are masked from 'package:base':
## 
##     intersect, setdiff, setequal, union

Time to put the new functions to practice. Let’s find the career HR totals for all players but limit the list to career total of 600 or more. Put the highest totals at the top. To run this, we first need to make career_HR a variable:

Batting%>%
  group_by(playerID)%>%
  summarize(career_HR = sum(HR))

## # A tibble: 18,915 x 2
##     playerID career_HR
##        <chr>     <int>
##  1 aardsda01         0
##  2 aaronha01       755
##  3 aaronto01        13
##  4  aasedo01         0
##  5  abadan01         0
##  6  abadfe01         0
##  7 abadijo01         0
##  8 abbated01        11
##  9 abbeybe01         0
## 10 abbeych01        19
## # ... with 18,905 more rows
…
