…
#The gutenberg id column is unnecessary, so remove it
dracula_words$gutenberg_id<-NULL

Bing is a sentiment set that provides a list of words and classifies each word as positive, or negative. Let’s first bring ‘bing’ to a data frame and inner join the words and bing, as to classify each word:

bing<-get_sentiments('bing')

dracula_words<-inner_join(dracula_words,bing)

## Joining, by = "word"

dracula_words

## # A tibble: 10,046 x 2
##         word sentiment
##        <chr>     <chr>
##  1       beg  negative
##  2 wonderful  positive
##  3   correct  positive
##  4  splendid  positive
##  5     noble  positive
##  6    pretty  positive
##  7      good  positive
##  8      good  positive
##  9    useful  positive
## 10    struck  negative
## # ... with 10,036 more rows
…
