WordCloud
…
peter_pan<-gutenberg_download(39755)

## Determining mirror for Project Gutenberg from http://www.gutenberg.org/robot/harvest

## Using mirror http://aleph.gutenberg.org

Next, we want to split apart each line of text into words. We can use the function unnest_tokens() to do so:

words_df<-peter_pan%>%
  unnest_tokens(word,text)

words_df

## # A tibble: 9,479 x 2
##    gutenberg_id         word
##           <int>        <chr>
##  1        39755 illustration
##  2        39755         with
##  3        39755          the
##  4        39755       spring
##  5        39755        comes
##  6        39755        wendy
##  7        39755          the
##  8        39755        story
##  9        39755           of
## 10        39755        peter
## # ... with 9,469 more rows

We also want to get rid of any common words, such as “a”,“the”,“and”, these are called stop_words. To delete these from showing our wordloud, we will run the following:

words_df<-words_df%>%
  filter(!word %in% stop_words$word)

words_df

## # A tibble: 3,571 x 2
##    gutenberg_id         word
##           <int>        <chr>
##  1        39755 illustration
##  2        39755       spring
##  3        39755        wendy
##  4        39755        story
##  5        39755        peter
##  6        39755          pan
##  7        39755       retold
##  8        39755        fairy
##  9        39755         play
## 10        39755          sir
## # ... with 3,561 more rows

Next, we want to count how many times each word comes up within the novel… To figure this out, we will group by each word and then count that word to get its frequency:

word_freq<-words_df%>%
  group_by(word)%>%
  summarize(count=n())

word_freq

## # A tibble: 1,541 x 2
##          word count
##         <chr> <int>
##  1    _colour     8
##  2    _first_     1
##  3     _hear_     1
##  4      _his_     1
##  5        _i_     1
##  6     _kiss_     1
##  7     _like_     1
##  8       _me_     1
##  9 _thimbles_     1
## 10          1     2
## # ... with 1,531 more rows
…
