Positive vs. Negative Wordcloud
…
#extract each word from the text.
dracula_words<-dracula%>%
  unnest_tokens(word,text)

#sentiment that provides the list of words, and classifies each as positive or negative
bing<-get_sentiments('bing')

#inner join each word with a positive or negative sentiment
dracula_words<-inner_join(dracula_words,bing)

dracula_words

## # A tibble: 10,046 x 2
##         word sentiment
##        <chr>     <chr>
##  1       beg  negative
##  2 wonderful  positive
##  3   correct  positive
##  4  splendid  positive
##  5     noble  positive
##  6    pretty  positive
##  7      good  positive
##  8      good  positive
##  9    useful  positive
## 10    struck  negative
## # ... with 10,036 more rows
…
